ModuleInfo "Name: OgreNewt Module for Flow3D"
ModuleInfo "Description: Allows the use of OgreNewt physics inside Flow"
ModuleInfo "License: Private"
ModuleInfo "Authors: Lina Adkins, Damien Sturdy and Adrian Tysoe"
import brl.blitz
import flow.main
TOgreNewtWorld^brl.blitz.Object{
FM_ADAPTIVE%=1
FM_EXACT%=0
SM_ADAPTIVE%=1
SM_EXACT%=0
.Pointer@*&
.autoCleanupBodies@&
.managed@&
-New%()="_flow_ogrenewt_TOgreNewtWorld_New"
-Delete%()="_flow_ogrenewt_TOgreNewtWorld_Delete"
+Create:TOgreNewtWorld()="_flow_ogrenewt_TOgreNewtWorld_Create"
-Destroy%()="_flow_ogrenewt_TOgreNewtWorld_Destroy"
-update%(t_step#)="_flow_ogrenewt_TOgreNewtWorld_update"
-invalidateCache%()="_flow_ogrenewt_TOgreNewtWorld_invalidateCache"
-getNewtonWorld@*()="_flow_ogrenewt_TOgreNewtWorld_getNewtonWorld"
-getDefaultMaterialID:TMaterialID()="_flow_ogrenewt_TOgreNewtWorld_getDefaultMaterialID"
-destroyAllBodies%()="_flow_ogrenewt_TOgreNewtWorld_destroyAllBodies"
-setSolverModel%(model%)="_flow_ogrenewt_TOgreNewtWorld_setSolverModel"
-setFrictionModel%(model%)="_flow_ogrenewt_TOgreNewtWorld_setFrictionModel"
-setPlatformArchitecture%(mode%)="_flow_ogrenewt_TOgreNewtWorld_setPlatformArchitecture"
-getBodyCount%()="_flow_ogrenewt_TOgreNewtWorld_getBodyCount"
-setMultithreadSolverOnSingleIsland%(mode%)="_flow_ogrenewt_TOgreNewtWorld_setMultithreadSolverOnSingleIsland"
-setThreadCount%(threads%)="_flow_ogrenewt_TOgreNewtWorld_setThreadCount"
-getThreadCount%()="_flow_ogrenewt_TOgreNewtWorld_getThreadCount"
-criticalSectionLock%()="_flow_ogrenewt_TOgreNewtWorld_criticalSectionLock"
-criticalSectionUnlock%()="_flow_ogrenewt_TOgreNewtWorld_criticalSectionUnlock"
-setMinimumFrameRate%(rate#)="_flow_ogrenewt_TOgreNewtWorld_setMinimumFrameRate"
-setWorldSize%(minsize:flow.main.TVector3,maxsize:flow.main.TVector3)="_flow_ogrenewt_TOgreNewtWorld_setWorldSize"
-setWorldSizeWithAAB%(box:flow.main.TAxisAlignedBox)="_flow_ogrenewt_TOgreNewtWorld_setWorldSizeWithAAB"
-getWorldSize:flow.main.TAxisAlignedBox()="_flow_ogrenewt_TOgreNewtWorld_getWorldSize"
-getVersion#()="_flow_ogrenewt_TOgreNewtWorld_getVersion"
-setLeaveWorldCallback%(callback@*)="_flow_ogrenewt_TOgreNewtWorld_setLeaveWorldCallback"
}="flow_ogrenewt_TOgreNewtWorld"
TOgreNewtDebugger^brl.blitz.Object{
-New%()="_flow_ogrenewt_TOgreNewtDebugger_New"
-Delete%()="_flow_ogrenewt_TOgreNewtDebugger_Delete"
+Init%(smgr:flow.main.TSceneManager)="_flow_ogrenewt_TOgreNewtDebugger_Init"
+deInit%()="_flow_ogrenewt_TOgreNewtDebugger_deInit"
+showLines%(world:TOgreNewtWorld)="_flow_ogrenewt_TOgreNewtDebugger_showLines"
+hideLines%()="_flow_ogrenewt_TOgreNewtDebugger_hideLines"
}="flow_ogrenewt_TOgreNewtDebugger"
TRaycast^brl.blitz.Object{
.Pointer@*&
-New%()="_flow_ogrenewt_TRaycast_New"
-Delete%()="_flow_ogrenewt_TRaycast_Delete"
}="flow_ogrenewt_TRaycast"
TBasicRaycast^TRaycast{
-New%()="_flow_ogrenewt_TBasicRaycast_New"
-Delete%()="_flow_ogrenewt_TBasicRaycast_Delete"
+Create:TBasicRaycast(world:TOgreNewtWorld,startpt:flow.main.TVector3,endpt:flow.main.TVector3)="_flow_ogrenewt_TBasicRaycast_Create"
-getFirstHit:TBasicRaycastInfo()="_flow_ogrenewt_TBasicRaycast_getFirstHit"
-getHitCount%()="_flow_ogrenewt_TBasicRaycast_getHitCount"
-getInfoAt:TBasicRaycastInfo(Pos%)="_flow_ogrenewt_TBasicRaycast_getInfoAt"
}="flow_ogrenewt_TBasicRaycast"
TBasicRaycastInfo^brl.blitz.Object{
.Pointer@*&
-New%()="_flow_ogrenewt_TBasicRaycastInfo_New"
-Delete%()="_flow_ogrenewt_TBasicRaycastInfo_Delete"
+Create:TBasicRaycastInfo()="_flow_ogrenewt_TBasicRaycastInfo_Create"
-getDistance#()="_flow_ogrenewt_TBasicRaycastInfo_getDistance"
-getBody:TBody()="_flow_ogrenewt_TBasicRaycastInfo_getBody"
-getCollisionID%()="_flow_ogrenewt_TBasicRaycastInfo_getCollisionID"
-getNormal:flow.main.TVector3()="_flow_ogrenewt_TBasicRaycastInfo_getNormal"
}="flow_ogrenewt_TBasicRaycastInfo"
TCollision^brl.blitz.Object{
.Pointer@*&
-New%()="_flow_ogrenewt_TCollision_New"
-Delete%()="_flow_ogrenewt_TCollision_Delete"
+createBox:TCollision(World:TOgreNewtWorld,Size:flow.main.TVector3,orient:flow.main.TQuaternion,Pos:flow.main.TVector3)="_flow_ogrenewt_TCollision_createBox"
+createConvexHull:TCollision(world:TOgreNewtWorld,sn:flow.main.TSceneNode,x#,y#,z#)="_flow_ogrenewt_TCollision_createConvexHull"
+createCylinder:TCollision(world:TOgreNewtWorld,radius#,height#,orient:flow.main.TQuaternion,pos:flow.main.TVector3)="_flow_ogrenewt_TCollision_createCylinder"
+createEllipsoid:TCollision(world:TOgreNewtWorld,size:flow.main.TVector3,orient:flow.main.TQuaternion,pos:flow.main.TVector3)="_flow_ogrenewt_TCollision_createEllipsoid"
-calculateInertialMatrix%(inertia:flow.main.TVector3,offset:flow.main.TVector3)="_flow_ogrenewt_TCollision_calculateInertialMatrix"
}="flow_ogrenewt_TCollision"
TTreeCollision^TCollision{
FW_DEFAULT%=0
FW_REVERSE%=1
-New%()="_flow_ogrenewt_TTreeCollision_New"
-Delete%()="_flow_ogrenewt_TTreeCollision_Delete"
+Create:TTreeCollision(world:TOgreNewtWorld)="_flow_ogrenewt_TTreeCollision_Create"
+createWithSceneNode:TTreeCollision(world:TOgreNewtWorld,sn:flow.main.TSceneNode,optimize%,fw%=0)="_flow_ogrenewt_TTreeCollision_createWithSceneNode"
-start%()="_flow_ogrenewt_TTreeCollision_start"
-addPoly%(polys:flow.main.TVector3,ID%)="_flow_ogrenewt_TTreeCollision_addPoly"
-finish%()="_flow_ogrenewt_TTreeCollision_finish"
}="flow_ogrenewt_TTreeCollision"
TBody^brl.blitz.Object{
.Pointer@*&
-New%()="_flow_ogrenewt_TBody_New"
-Delete%()="_flow_ogrenewt_TBody_Delete"
+Create:TBody(W:TOgreNewtWorld,col:TCollision,bodytype%=0)="_flow_ogrenewt_TBody_Create"
-Destroy%()="_flow_ogrenewt_TBody_Destroy"
-setUserData%(data:Object)="_flow_ogrenewt_TBody_setUserData"
-getUserData:Object()="_flow_ogrenewt_TBody_getUserData"
-getOgreNode:flow.main.TOgreNode()="_flow_ogrenewt_TBody_getOgreNode"
-getWorld:TOgreNewtWorld()="_flow_ogrenewt_TBody_getWorld"
-setType%(bodytype%)="_flow_ogrenewt_TBody_setType"
-getType%()="_flow_ogrenewt_TBody_getType"
-attachNode%(node:flow.main.TOgreNode)="_flow_ogrenewt_TBody_attachNode"
-setStandardForceCallback%()="_flow_ogrenewt_TBody_setStandardForceCallback"
-setCustomForceAndTorqueCallback%(callback@*)="_flow_ogrenewt_TBody_setCustomForceAndTorqueCallback"
-removeForceAndTorqueCallback%()="_flow_ogrenewt_TBody_removeForceAndTorqueCallback"
-setCustomTransformCallback%(callback@*)="_flow_ogrenewt_TBody_setCustomTransformCallback"
-removeTransformCallback%()="_flow_ogrenewt_TBody_removeTransformCallback"
-setMassMatrix%(mass#,momentOfInertia:flow.main.TVector3)="_flow_ogrenewt_TBody_setMassMatrix"
-setPositionOrientation%(pos:flow.main.TVector3,orientation:flow.main.TQuaternion)="_flow_ogrenewt_TBody_setPositionOrientation"
-addForce%(force:flow.main.TVector3)="_flow_ogrenewt_TBody_addForce"
-addLocalForce%(force:flow.main.TVector3,pos:flow.main.TVector3)="_flow_ogrenewt_TBody_addLocalForce"
-addTorque%(torque:flow.main.TVector3)="_flow_ogrenewt_TBody_addTorque"
-setTorque%(torque:flow.main.TVector3)="_flow_ogrenewt_TBody_setTorque"
-getTorque:flow.main.TVector3()="_flow_ogrenewt_TBody_getTorque"
-setVelocity%(vel:flow.main.TVector3)="_flow_ogrenewt_TBody_setVelocity"
-getMassMatrix%(mass#,inertia:flow.main.TVector3)="_flow_ogrenewt_TBody_getMassMatrix"
-setOmega%(omega:flow.main.TVector3)="_flow_ogrenewt_TBody_setOmega"
-setCenterOfMass%(centerOfMass:flow.main.TVector3)="_flow_ogrenewt_TBody_setCenterOfMass"
-setContinuousCollisionMode%(state%)="_flow_ogrenewt_TBody_setContinuousCollisionMode"
-setJointRecursiveCollision%(state%)="_flow_ogrenewt_TBody_setJointRecursiveCollision"
-setAutoSleep%(flag%)="_flow_ogrenewt_TBody_setAutoSleep"
-getAutoSleep%()="_flow_ogrenewt_TBody_getAutoSleep"
-setSleepState%(state%)="_flow_ogrenewt_TBody_setSleepState"
-getSleepState%()="_flow_ogrenewt_TBody_getSleepState"
-getOmega:flow.main.TVector3()="_flow_ogrenewt_TBody_getOmega"
-getPositionOrientation%(pos:flow.main.TVector3,orientation:flow.main.TQuaternion)="_flow_ogrenewt_TBody_getPositionOrientation"
-getVelocity:flow.main.TVector3()="_flow_ogrenewt_TBody_getVelocity"
-getMaterialGroupID:TMaterialID()="_flow_ogrenewt_TBody_getMaterialGroupID"
-setMaterialGroupID%(ID:TMaterialID)="_flow_ogrenewt_TBody_setMaterialGroupID"
-addImpulse%(deltav:flow.main.TVector3,posit:flow.main.TVector3)="_flow_ogrenewt_TBody_addImpulse"
-addBuoyancyForce%(fluidDensity#,fluidLinearViscosity#,fluidAngularViscosity#,gravity:flow.main.TVector3,callback@*)="_flow_ogrenewt_TBody_addBuoyancyForce"
-getPosition:flow.main.TVector3()="_flow_ogrenewt_TBody_getPosition"
-calculateGravity:flow.main.TVector3()="_flow_ogrenewt_TBody_calculateGravity"
+FromPtr:TBody(Pointer@*)="_flow_ogrenewt_TBody_FromPtr"
-hasUserData@()="_flow_ogrenewt_TBody_hasUserData"
-clearUserData%()="_flow_ogrenewt_TBody_clearUserData"
}="flow_ogrenewt_TBody"
TMaterialID^brl.blitz.Object{
.Pointer@*&
-New%()="_flow_ogrenewt_TMaterialID_New"
-Delete%()="_flow_ogrenewt_TMaterialID_Delete"
+Create:TMaterialID(world:TOgreNewtWorld)="_flow_ogrenewt_TMaterialID_Create"
-Destroy%()="_flow_ogrenewt_TMaterialID_Destroy"
-getID%()="_flow_ogrenewt_TMaterialID_getID"
}="flow_ogrenewt_TMaterialID"
TJoint^brl.blitz.Object{
.Pointer@*&
.managed@&
-New%()="_flow_ogrenewt_TJoint_New"
-Delete%()="_flow_ogrenewt_TJoint_Delete"
+FromPtr:TJoint(Pointer@*)="_flow_ogrenewt_TJoint_FromPtr"
-getCollisionState%()="_flow_ogrenewt_TJoint_getCollisionState"
-setCollisionState%(State%)="_flow_ogrenewt_TJoint_setCollisionState"
-getStiffness#()="_flow_ogrenewt_TJoint_getStiffness"
-setStiffness%(stiffness#)="_flow_ogrenewt_TJoint_setStiffness"
-setUserData%(data:Object)="_flow_ogrenewt_TJoint_setUserData"
-getUserData:Object()="_flow_ogrenewt_TJoint_getUserData"
-destroy%()="_flow_ogrenewt_TJoint_destroy"
-clearUserData%()="_flow_ogrenewt_TJoint_clearUserData"
-hasUserData@()="_flow_ogrenewt_TJoint_hasUserData"
-isNull@()="_flow_ogrenewt_TJoint_isNull"
}="flow_ogrenewt_TJoint"
TBasicJoints^brl.blitz.Object{
-New%()="_flow_ogrenewt_TBasicJoints_New"
-Delete%()="_flow_ogrenewt_TBasicJoints_Delete"
+CreateJoint:TJoint()="_flow_ogrenewt_TBasicJoints_CreateJoint"
+CreateBallAndSocket:TBallAndSocket(world:TOgreNewtWorld,child:TBody,parent:TBody,Pos:flow.main.TVector3)="_flow_ogrenewt_TBasicJoints_CreateBallAndSocket"
+CreateHinge:THingeJoint(world:TOgreNewtWorld,child:TBody,parent:TBody,Pos:flow.main.TVector3,pin:flow.main.TVector3)="_flow_ogrenewt_TBasicJoints_CreateHinge"
+CreateSlider:TSliderJoint(world:TOgreNewtWorld,child:TBody,parent:TBody,Pos:flow.main.TVector3,pin:flow.main.TVector3)="_flow_ogrenewt_TBasicJoints_CreateSlider"
+CreateUniversal:TUniversalJoint(world:TOgreNewtWorld,child:TBody,parent:TBody,Pos:flow.main.TVector3,pin0:flow.main.TVector3,pin1:flow.main.TVector3)="_flow_ogrenewt_TBasicJoints_CreateUniversal"
+CreateUpVector:TUpVectorJoint(world:TOgreNewtWorld,body:TBody,pin:flow.main.TVector3)="_flow_ogrenewt_TBasicJoints_CreateUpVector"
}="flow_ogrenewt_TBasicJoints"
TBallAndSocket^TJoint{
-New%()="_flow_ogrenewt_TBallAndSocket_New"
-Delete%()="_flow_ogrenewt_TBallAndSocket_Delete"
+FromPtr:TBallAndSocket(Pointer@*)="_flow_ogrenewt_TBallAndSocket_FromPtr"
-getJointAngle:flow.main.TVector3()="_flow_ogrenewt_TBallAndSocket_getJointAngle"
-getJointOmega:flow.main.TVector3()="_flow_ogrenewt_TBallAndSocket_getJointOmega"
-getJointForce:flow.main.TVector3()="_flow_ogrenewt_TBallAndSocket_getJointForce"
-setLimits%(pin:flow.main.TVector3,maxCone:flow.main.TRadian,maxTwist:flow.main.TRadian)="_flow_ogrenewt_TBallAndSocket_setLimits"
}="flow_ogrenewt_TBallAndSocket"
THingeJoint^TJoint{
-New%()="_flow_ogrenewt_THingeJoint_New"
-Delete%()="_flow_ogrenewt_THingeJoint_Delete"
+FromPtr:THingeJoint(Pointer@*)="_flow_ogrenewt_THingeJoint_FromPtr"
-getJointAngle:flow.main.TRadian()="_flow_ogrenewt_THingeJoint_getJointAngle"
-getJointOmega#()="_flow_ogrenewt_THingeJoint_getJointOmega"
-getJointForce:flow.main.TVector3()="_flow_ogrenewt_THingeJoint_getJointForce"
-setCallback%(callback@*)="_flow_ogrenewt_THingeJoint_setCallback"
-setCallbackAccel%(accel#)="_flow_ogrenewt_THingeJoint_setCallbackAccel"
-setCallbackFrictionMin%(minValue#)="_flow_ogrenewt_THingeJoint_setCallbackFrictionMin"
-setCallbackFrictionMax%(maxValue#)="_flow_ogrenewt_THingeJoint_setCallbackFrictionMax"
-getCallbackTimestep#()="_flow_ogrenewt_THingeJoint_getCallbackTimestep"
-calculateStopAlpha#(angle:flow.main.TRadian)="_flow_ogrenewt_THingeJoint_calculateStopAlpha"
}="flow_ogrenewt_THingeJoint"
TSliderJoint^TJoint{
-New%()="_flow_ogrenewt_TSliderJoint_New"
-Delete%()="_flow_ogrenewt_TSliderJoint_Delete"
+FromPtr:TSliderJoint(Pointer@*)="_flow_ogrenewt_TSliderJoint_FromPtr"
-getJointPosit#()="_flow_ogrenewt_TSliderJoint_getJointPosit"
-getJointVeloc#()="_flow_ogrenewt_TSliderJoint_getJointVeloc"
-getJointForce:flow.main.TVector3()="_flow_ogrenewt_TSliderJoint_getJointForce"
-setCallback%(callback@*)="_flow_ogrenewt_TSliderJoint_setCallback"
-setCallbackAccel%(accel#)="_flow_ogrenewt_TSliderJoint_setCallbackAccel"
-setCallbackFrictionMin%(minValue#)="_flow_ogrenewt_TSliderJoint_setCallbackFrictionMin"
-setCallbackFrictionMax%(maxValue#)="_flow_ogrenewt_TSliderJoint_setCallbackFrictionMax"
-getCallbackTimestep#()="_flow_ogrenewt_TSliderJoint_getCallbackTimestep"
-calculateStopAccel#(dist#)="_flow_ogrenewt_TSliderJoint_calculateStopAccel"
}="flow_ogrenewt_TSliderJoint"
TUniversalJoint^TJoint{
-New%()="_flow_ogrenewt_TUniversalJoint_New"
-Delete%()="_flow_ogrenewt_TUniversalJoint_Delete"
+FromPtr:TUniversalJoint(Pointer@*)="_flow_ogrenewt_TUniversalJoint_FromPtr"
-getJointAngle0:flow.main.TRadian()="_flow_ogrenewt_TUniversalJoint_getJointAngle0"
-getJointAngle1:flow.main.TRadian()="_flow_ogrenewt_TUniversalJoint_getJointAngle1"
-getJointOmega0#()="_flow_ogrenewt_TUniversalJoint_getJointOmega0"
-getJointOmega1#()="_flow_ogrenewt_TUniversalJoint_getJointOmega1"
-getJointForce:flow.main.TVector3()="_flow_ogrenewt_TUniversalJoint_getJointForce"
-setCallback%(callback@*)="_flow_ogrenewt_TUniversalJoint_setCallback"
-setCallbackAccel%(accel#,axis%)="_flow_ogrenewt_TUniversalJoint_setCallbackAccel"
-setCallbackFrictionMin%(minValue#,axis%)="_flow_ogrenewt_TUniversalJoint_setCallbackFrictionMin"
-setCallbackFrictionMax%(maxValue#,axis%)="_flow_ogrenewt_TUniversalJoint_setCallbackFrictionMax"
-getCallbackTimestep#()="_flow_ogrenewt_TUniversalJoint_getCallbackTimestep"
-calculateStopAlpha0#(angle#)="_flow_ogrenewt_TUniversalJoint_calculateStopAlpha0"
-calculateStopAlpha1#(angle#)="_flow_ogrenewt_TUniversalJoint_calculateStopAlpha1"
}="flow_ogrenewt_TUniversalJoint"
TUpVectorJoint^TJoint{
-New%()="_flow_ogrenewt_TUpVectorJoint_New"
-Delete%()="_flow_ogrenewt_TUpVectorJoint_Delete"
+FromPtr:TUpVectorJoint(Pointer@*)="_flow_ogrenewt_TUpVectorJoint_FromPtr"
-setPin%(pin:flow.main.TVector3)="_flow_ogrenewt_TUpVectorJoint_setPin"
-getPin:flow.main.TVector3()="_flow_ogrenewt_TUpVectorJoint_getPin"
}="flow_ogrenewt_TUpVectorJoint"
TContactCallback^brl.blitz.Object{
.Pointer@*&
.managed@&
-New%()="_flow_ogrenewt_TContactCallback_New"
-Delete%()="_flow_ogrenewt_TContactCallback_Delete"
+Create:TContactCallback()="_flow_ogrenewt_TContactCallback_Create"
-getBody0:TBody()="_flow_ogrenewt_TContactCallback_getBody0"
-getBody1:TBody()="_flow_ogrenewt_TContactCallback_getBody1"
+userBegin%(threadIndex%)="_flow_ogrenewt_TContactCallback_userBegin"
+userProcess%(contactIterator@*,timeStep#,threadIndex%)="_flow_ogrenewt_TContactCallback_userProcess"
}="flow_ogrenewt_TContactCallback"
TMaterialPair^brl.blitz.Object{
.Pointer@*&
.contactCallback:TContactCallback&
-New%()="_flow_ogrenewt_TMaterialPair_New"
-Delete%()="_flow_ogrenewt_TMaterialPair_Delete"
+Create:TMaterialPair(world:TOgreNewtWorld,mat1:TMaterialID,mat2:TMaterialID)="_flow_ogrenewt_TMaterialPair_Create"
-setDefaultSoftness%(softness#)="_flow_ogrenewt_TMaterialPair_setDefaultSoftness"
-setDefaultElasticity%(elasticity#)="_flow_ogrenewt_TMaterialPair_setDefaultElasticity"
-setDefaultCollidable%(state%)="_flow_ogrenewt_TMaterialPair_setDefaultCollidable"
-setDefaultFriction%(stat#,kinetic#)="_flow_ogrenewt_TMaterialPair_setDefaultFriction"
-setContinuousCollisionMode%(state%)="_flow_ogrenewt_TMaterialPair_setContinuousCollisionMode"
-setContactCallback%(callback:TContactCallback)="_flow_ogrenewt_TMaterialPair_setContactCallback"
-Destroy%()="_flow_ogrenewt_TMaterialPair_Destroy"
+SetupCallbacks%(Callback:TContactCallback,userBeginMaxFunc@*,userProcessMaxFunc@*)="_flow_ogrenewt_TMaterialPair_SetupCallbacks"
}="flow_ogrenewt_TMaterialPair"
TContactIterator^brl.blitz.Object{
.Pointer@*&
-New%()="_flow_ogrenewt_TContactIterator_New"
-Delete%()="_flow_ogrenewt_TContactIterator_Delete"
+FromPtr:TContactIterator(Pointer@*)="_flow_ogrenewt_TContactIterator_FromPtr"
-getCurrent:TContact()="_flow_ogrenewt_TContactIterator_getCurrent"
-moveNext@()="_flow_ogrenewt_TContactIterator_moveNext"
-reset%()="_flow_ogrenewt_TContactIterator_reset"
-hasMoreElements@()="_flow_ogrenewt_TContactIterator_hasMoreElements"
-getContactCount%()="_flow_ogrenewt_TContactIterator_getContactCount"
}="flow_ogrenewt_TContactIterator"
TContact^brl.blitz.Object{
.Pointer@*&
-New%()="_flow_ogrenewt_TContact_New"
-Delete%()="_flow_ogrenewt_TContact_Delete"
-removeContact%()="_flow_ogrenewt_TContact_removeContact"
-getContactFaceAttribute%()="_flow_ogrenewt_TContact_getContactFaceAttribute"
-getBodyCollisionID%(body:TBody)="_flow_ogrenewt_TContact_getBodyCollisionID"
-getContactNormalSpeed#()="_flow_ogrenewt_TContact_getContactNormalSpeed"
-getContactForce:flow.main.TVector3()="_flow_ogrenewt_TContact_getContactForce"
-getContactPositionAndNormal%(pos:flow.main.TVector3,norm:flow.main.TVector3)="_flow_ogrenewt_TContact_getContactPositionAndNormal"
-getContactTangentDirections%(dir0:flow.main.TVector3,dir1:flow.main.TVector3)="_flow_ogrenewt_TContact_getContactTangentDirections"
-getContactTangentSpeed#(index%)="_flow_ogrenewt_TContact_getContactTangentSpeed"
-setContactSoftness%(softness#)="_flow_ogrenewt_TContact_setContactSoftness"
-setContactElasticity%(elasticity#)="_flow_ogrenewt_TContact_setContactElasticity"
-setContactFrictionState%(state%,index%)="_flow_ogrenewt_TContact_setContactFrictionState"
-setContactFrictionCoef%(stat#,kinetic#,index%)="_flow_ogrenewt_TContact_setContactFrictionCoef"
-setContactTangentAcceleration%(accel#,index%)="_flow_ogrenewt_TContact_setContactTangentAcceleration"
-rotateTangentDirections%(dir:flow.main.TVector3)="_flow_ogrenewt_TContact_rotateTangentDirections"
-setContactNormalDirection%(dir:flow.main.TVector3)="_flow_ogrenewt_TContact_setContactNormalDirection"
-setContactNormalAcceleration%(accel#)="_flow_ogrenewt_TContact_setContactNormalAcceleration"
}="flow_ogrenewt_TContact"
fP^brl.blitz.Object{
_world:TOgreNewtWorld&=mem:p("_flow_ogrenewt_fP__world")
_isEnabled@&=mem:b("_flow_ogrenewt_fP__isEnabled")
_debugEnabled@&=mem:b("_flow_ogrenewt_fP__debugEnabled")
_RayHitPosition:flow.main.TVector3&=mem:p("_flow_ogrenewt_fP__RayHitPosition")
_RayHitBody:TBody&=mem:p("_flow_ogrenewt_fP__RayHitBody")
-New%()="_flow_ogrenewt_fP_New"
-Delete%()="_flow_ogrenewt_fP_Delete"
+enablePhysics:TOgreNewtWorld(frameRate%=60)="_flow_ogrenewt_fP_enablePhysics"
+disablePhysics%()="_flow_ogrenewt_fP_disablePhysics"
+addPhysics:TBody(entity:flow.main.TMovableObject,isTreeCollision@=0,mass#=10#,callback@*=0)="_flow_ogrenewt_fP_addPhysics"
+addPhysicsBox:TBody(entity:flow.main.TMovableObject,mass#=10#,size:flow.main.TVector3="bbNullObject",orientation:flow.main.TQuaternion="bbNullObject",offset:flow.main.TVector3="bbNullObject",callback@*=0)="_flow_ogrenewt_fP_addPhysicsBox"
+addPhysicsEllipsoid:TBody(entity:flow.main.TMovableObject,mass#=10#,size:flow.main.TVector3="bbNullObject",orientation:flow.main.TQuaternion="bbNullObject",offset:flow.main.TVector3="bbNullObject",callback@*=0)="_flow_ogrenewt_fP_addPhysicsEllipsoid"
+addBallSocket:TBallAndSocket(parent:TBody,child:TBody,collideSelf@=0,jointPosition:flow.main.TVector3="bbNullObject")="_flow_ogrenewt_fP_addBallSocket"
+getWorld:TOgreNewtWorld()="_flow_ogrenewt_fP_getWorld"
+update%()="_flow_ogrenewt_fP_update"
+setLeaveWorldCallback%(callback@*)="_flow_ogrenewt_fP_setLeaveWorldCallback"
+setWorldSize%(minPoint:flow.main.TVector3,maxPoint:flow.main.TVector3)="_flow_ogrenewt_fP_setWorldSize"
+setDebugEnabled%(enabled@)="_flow_ogrenewt_fP_setDebugEnabled"
+getDebugEnabled@()="_flow_ogrenewt_fP_getDebugEnabled"
+PickedX#()="_flow_ogrenewt_fP_PickedX"
+PickedY#()="_flow_ogrenewt_fP_PickedY"
+PickedZ#()="_flow_ogrenewt_fP_PickedZ"
+PickedBody:Tbody()="_flow_ogrenewt_fP_PickedBody"
+RayPick:TBody(StartPos:flow.main.tvector3,Direction:flow.main.TVector3)="_flow_ogrenewt_fP_RayPick"
}="flow_ogrenewt_fP"
TPhysicsTimer^brl.blitz.Object{
frameRate#&=mem:f("_flow_ogrenewt_TPhysicsTimer_frameRate")
timer:flow.main.TOgreTimer&=mem:p("_flow_ogrenewt_TPhysicsTimer_timer")
physicsWorld:TOgreNewtWorld&=mem:p("_flow_ogrenewt_TPhysicsTimer_physicsWorld")
timeDelta#&=mem:f("_flow_ogrenewt_TPhysicsTimer_timeDelta")
timeCurrent#&=mem:f("_flow_ogrenewt_TPhysicsTimer_timeCurrent")
timePrevious#&=mem:f("_flow_ogrenewt_TPhysicsTimer_timePrevious")
timeElapsed#&=mem:f("_flow_ogrenewt_TPhysicsTimer_timeElapsed")
-New%()="_flow_ogrenewt_TPhysicsTimer_New"
-Delete%()="_flow_ogrenewt_TPhysicsTimer_Delete"
+Initialise%(fps#,inTimer:flow.main.TOgreTimer,world:TOgreNewtWorld)="_flow_ogrenewt_TPhysicsTimer_Initialise"
+Update%()="_flow_ogrenewt_TPhysicsTimer_Update"
}="flow_ogrenewt_TPhysicsTimer"
OGRENEWTWORLD_create@*()&=mem:p("flow_ogrenewt_OGRENEWTWORLD_create")
OGRENEWTWORLD_destroy%(w@*)&=mem:p("flow_ogrenewt_OGRENEWTWORLD_destroy")
OGRENEWTWORLD_update%(t_step#,w@*)&=mem:p("flow_ogrenewt_OGRENEWTWORLD_update")
OGRENEWTWORLD_invalidateCache%(w@*)&=mem:p("flow_ogrenewt_OGRENEWTWORLD_invalidateCache")
OGRENEWTWORLD_getNewtonWorld@*(w@*)&=mem:p("flow_ogrenewt_OGRENEWTWORLD_getNewtonWorld")
OGRENEWTWORLD_getDefaultMaterialID@*(w@*)&=mem:p("flow_ogrenewt_OGRENEWTWORLD_getDefaultMaterialID")
OGRENEWTWORLD_destroyAllBodies%(w@*)&=mem:p("flow_ogrenewt_OGRENEWTWORLD_destroyAllBodies")
OGRENEWTWORLD_setSolverModel%(model%,w@*)&=mem:p("flow_ogrenewt_OGRENEWTWORLD_setSolverModel")
OGRENEWTWORLD_setFrictionModel%(model%,w@*)&=mem:p("flow_ogrenewt_OGRENEWTWORLD_setFrictionModel")
OGRENEWTWORLD_setPlatformArchitecture%(mode%,w@*)&=mem:p("flow_ogrenewt_OGRENEWTWORLD_setPlatformArchitecture")
OGRENEWTWORLD_getBodyCount%(w@*)&=mem:p("flow_ogrenewt_OGRENEWTWORLD_getBodyCount")
OGRENEWTWORLD_setMultithreadSolverOnSingleIsland%(mode%,w@*)&=mem:p("flow_ogrenewt_OGRENEWTWORLD_setMultithreadSolverOnSingleIsland")
OGRENEWTWORLD_setThreadCount%(threads%,w@*)&=mem:p("flow_ogrenewt_OGRENEWTWORLD_setThreadCount")
OGRENEWTWORLD_getThreadCount%(w@*)&=mem:p("flow_ogrenewt_OGRENEWTWORLD_getThreadCount")
OGRENEWTWORLD_criticalSectionLock%(w@*)&=mem:p("flow_ogrenewt_OGRENEWTWORLD_criticalSectionLock")
OGRENEWTWORLD_criticalSectionUnlock%(w@*)&=mem:p("flow_ogrenewt_OGRENEWTWORLD_criticalSectionUnlock")
OGRENEWTWORLD_setMinimumFrameRate%(rate%,ogreNewtWorld@*)&=mem:p("flow_ogrenewt_OGRENEWTWORLD_setMinimumFrameRate")
OGRENEWTWORLD_setWorldSize%(minSize@*,maxSize@*,w@*)&=mem:p("flow_ogrenewt_OGRENEWTWORLD_setWorldSize")
OGRENEWTWORLD_setWorldSizeWithAAB%(box@*,w@*)&=mem:p("flow_ogrenewt_OGRENEWTWORLD_setWorldSizeWithAAB")
OGRENEWTWORLD_getWorldSize@*(w@*)&=mem:p("flow_ogrenewt_OGRENEWTWORLD_getWorldSize")
OGRENEWTWORLD_getVersion#(ogreNewtWorld@*)&=mem:p("flow_ogrenewt_OGRENEWTWORLD_getVersion")
OGRENEWTWORLD_setLeaveWorldCallback%(callback@*,w@*)&=mem:p("flow_ogrenewt_OGRENEWTWORLD_setLeaveWorldCallback")
OGRENEWTBR_create@*(world@*,startpt@*,endpt@*)&=mem:p("flow_ogrenewt_OGRENEWTBR_create")
OGRENEWTBR_delete%(BasicRaycast@*)&=mem:p("flow_ogrenewt_OGRENEWTBR_delete")
OGRENEWTBR_getFirstHit@*(BasicRayCast@*)&=mem:p("flow_ogrenewt_OGRENEWTBR_getFirstHit")
OGRENEWTBR_getHitCount%(BasicRaycast@*)&=mem:p("flow_ogrenewt_OGRENEWTBR_getHitCount")
OGRENEWTBR_getInfoAt@*(pos%,BasicRaycast@*)&=mem:p("flow_ogrenewt_OGRENEWTBR_getInfoAt")
OGRENEWTBRINFO_create@*()&=mem:p("flow_ogrenewt_OGRENEWTBRINFO_create")
OGRENEWTBRINFO_delete%(i@*)&=mem:p("flow_ogrenewt_OGRENEWTBRINFO_delete")
OGRENEWTBRINFO_getDistance#(i@*)&=mem:p("flow_ogrenewt_OGRENEWTBRINFO_getDistance")
OGRENEWTBRINFO_getBody@*(i@*)&=mem:p("flow_ogrenewt_OGRENEWTBRINFO_getBody")
OGRENEWTBRINFO_getCollisionID%(i@*)&=mem:p("flow_ogrenewt_OGRENEWTBRINFO_getCollisionID")
OGRENEWTBRINFO_getNormal@*(i@*)&=mem:p("flow_ogrenewt_OGRENEWTBRINFO_getNormal")
OGRENEWTDEBUGGER_init%(smgr@*)&=mem:p("flow_ogrenewt_OGRENEWTDEBUGGER_init")
OGRENEWTDEBUGGER_deInit%()&=mem:p("flow_ogrenewt_OGRENEWTDEBUGGER_deInit")
OGRENEWTDEBUGGER_showLines%(world@*)&=mem:p("flow_ogrenewt_OGRENEWTDEBUGGER_showLines")
OGRENEWTDEBUGGER_hideLines%()&=mem:p("flow_ogrenewt_OGRENEWTDEBUGGER_hideLines")
OGRENEWTMP_create@*(world@*,mat1@*,mat2@*)&=mem:p("flow_ogrenewt_OGRENEWTMP_create")
OGRENEWTMP_delete%(mp@*)&=mem:p("flow_ogrenewt_OGRENEWTMP_delete")
OGRENEWTMP_setDefaultSoftness%(softness#,mp@*)&=mem:p("flow_ogrenewt_OGRENEWTMP_setDefaultSoftness")
OGRENEWTMP_setDefaultElasticity%(elasticity#,mp@*)&=mem:p("flow_ogrenewt_OGRENEWTMP_setDefaultElasticity")
OGRENEWTMP_setDefaultCollidable%(state%,mp@*)&=mem:p("flow_ogrenewt_OGRENEWTMP_setDefaultCollidable")
OGRENEWTMP_setDefaultFriction%(stat#,kinetic#,mp@*)&=mem:p("flow_ogrenewt_OGRENEWTMP_setDefaultFriction")
OGRENEWTMP_setContinuousCollisionMode%(state%,mp@*)&=mem:p("flow_ogrenewt_OGRENEWTMP_setContinuousCollisionMode")
OGRENEWTMP_setContactCallback%(callback@*,mp@*)&=mem:p("flow_ogrenewt_OGRENEWTMP_setContactCallback")
OGRENEWTMID_create@*(world@*)&=mem:p("flow_ogrenewt_OGRENEWTMID_create")
OGRENEWTMID_delete%(ID@*)&=mem:p("flow_ogrenewt_OGRENEWTMID_delete")
OGRENEWTMID_getID%(ID@*)&=mem:p("flow_ogrenewt_OGRENEWTMID_getID")
OGRENEWTCOL_createBox@*(world@*,size@*,orient@*,pos@*)&=mem:p("flow_ogrenewt_OGRENEWTCOL_createBox")
OGRENEWTCOL_createConvexHull@*(world@*,sn@*,x#,y#,z#)&=mem:p("flow_ogrenewt_OGRENEWTCOL_createConvexHull")
OGRENEWTCOL_createEllipsoid@*(world@*,size@*,orient@*,pos@*)&=mem:p("flow_ogrenewt_OGRENEWTCOL_createEllipsoid")
OGRENEWTCOL_createCylinder@*(world@*,radius#,height#,orient@*,pos@*)&=mem:p("flow_ogrenewt_OGRENEWTCOL_createCylinder")
OGRENEWTCOL_destroy%(greNewtCollision@*)&=mem:p("flow_ogrenewt_OGRENEWTCOL_destroy")
OGRENEWTCOL_calculateInertialMatrix%(inertia@*,offset@*,c@*)&=mem:p("flow_ogrenewt_OGRENEWTCOL_calculateInertialMatrix")
OGRENEWTTC_create@*(world@*)&=mem:p("flow_ogrenewt_OGRENEWTTC_create")
OGRENEWTTC_createWithSceneNode@*(world@*,sn@*,optimize%,fw%)&=mem:p("flow_ogrenewt_OGRENEWTTC_createWithSceneNode")
OGRENEWTTC_start%(tc@*)&=mem:p("flow_ogrenewt_OGRENEWTTC_start")
OGRENEWTTC_addPoly%(polys@*,ID%,tc@*)&=mem:p("flow_ogrenewt_OGRENEWTTC_addPoly")
OGRENEWTTC_finish%(tc@*)&=mem:p("flow_ogrenewt_OGRENEWTTC_finish")
BODY_create@*(W@*,col@*,bodytype%)&=mem:p("flow_ogrenewt_BODY_create")
BODY_destroy%(b@*)&=mem:p("flow_ogrenewt_BODY_destroy")
BODY_setUserData%(data:Object,b@*)&=mem:p("flow_ogrenewt_BODY_setUserData")
BODY_getUserData:Object(b@*)&=mem:p("flow_ogrenewt_BODY_getUserData")
BODY_hasUserData@(b@*)&=mem:p("flow_ogrenewt_BODY_hasUserData")
BODY_clearUserData%(b@*)&=mem:p("flow_ogrenewt_BODY_clearUserData")
BODY_getOgreNode@*(b@*)&=mem:p("flow_ogrenewt_BODY_getOgreNode")
BODY_getWorld@*(b@*)&=mem:p("flow_ogrenewt_BODY_getWorld")
BODY_setType%(bodytype%,b@*)&=mem:p("flow_ogrenewt_BODY_setType")
BODY_getType%(b@*)&=mem:p("flow_ogrenewt_BODY_getType")
BODY_attachNode%(node@*,b@*)&=mem:p("flow_ogrenewt_BODY_attachNode")
BODY_setStandardForceCallback%(b@*)&=mem:p("flow_ogrenewt_BODY_setStandardForceCallback")
BODY_setCustomForceAndTorqueCallback%(callback@*,b@*)&=mem:p("flow_ogrenewt_BODY_setCustomForceAndTorqueCallback")
BODY_removeForceAndTorqueCallback%(b@*)&=mem:p("flow_ogrenewt_BODY_removeForceAndTorqueCallback")
BODY_setCustomTransformCallback%(callback@*,b@*)&=mem:p("flow_ogrenewt_BODY_setCustomTransformCallback")
BODY_removeTransformCallback%(b@*)&=mem:p("flow_ogrenewt_BODY_removeTransformCallback")
BODY_setPositionOrientation%(pos@*,orient@*,b@*)&=mem:p("flow_ogrenewt_BODY_setPositionOrientation")
BODY_setMassMatrix%(mass#,inertia@*,b@*)&=mem:p("flow_ogrenewt_BODY_setMassMatrix")
BODY_setCenterOfMass%(centerOfMass@*,b@*)&=mem:p("flow_ogrenewt_BODY_setCenterOfMass")
BODY_setContinuousCollisionMode%(state%,b@*)&=mem:p("flow_ogrenewt_BODY_setContinuousCollisionMode")
BODY_setJointRecursiveCollision%(state%,b@*)&=mem:p("flow_ogrenewt_BODY_setJointRecursiveCollision")
BODY_setAutoSleep%(flag%,b@*)&=mem:p("flow_ogrenewt_BODY_setAutoSleep")
BODY_getAutoSleep%(b@*)&=mem:p("flow_ogrenewt_BODY_getAutoSleep")
BODY_setSleepState%(state%,b@*)&=mem:p("flow_ogrenewt_BODY_setSleepState")
BODY_getSleepState%(b@*)&=mem:p("flow_ogrenewt_BODY_getSleepState")
BODY_addForce%(force@*,ogreNewtBody@*)&=mem:p("flow_ogrenewt_BODY_addForce")
BODY_addLocalForce%(force@*,pos@*,b@*)&=mem:p("flow_ogrenewt_BODY_addLocalForce")
BODY_addTorque%(torque@*,ogreNewtBody@*)&=mem:p("flow_ogrenewt_BODY_addTorque")
BODY_setTorque%(torque@*,b@*)&=mem:p("flow_ogrenewt_BODY_setTorque")
BODY_getTorque@*(b@*)&=mem:p("flow_ogrenewt_BODY_getTorque")
BODY_setVelocity%(vel@*,ogreNewtBody@*)&=mem:p("flow_ogrenewt_BODY_setVelocity")
BODY_getMassMatrix%(mass#,inertia@*,ogreNewtBody@*)&=mem:p("flow_ogrenewt_BODY_getMassMatrix")
BODY_setOmega%(omega@*,ogreNewtBody@*)&=mem:p("flow_ogrenewt_BODY_setOmega")
BODY_getOmega@*(b@*)&=mem:p("flow_ogrenewt_BODY_getOmega")
BODY_getPositionOrientation%(pos@*,orientation@*,ogreNewtBody@*)&=mem:p("flow_ogrenewt_BODY_getPositionOrientation")
BODY_getVelocity@*(body@*)&=mem:p("flow_ogrenewt_BODY_getVelocity")
BODY_getMaterialGroupID@*(body@*)&=mem:p("flow_ogrenewt_BODY_getMaterialGroupID")
BODY_setMaterialGroupID%(ID@*,body@*)&=mem:p("flow_ogrenewt_BODY_setMaterialGroupID")
BODY_addImpulse%(deltav@*,posit@*,b@*)&=mem:p("flow_ogrenewt_BODY_addImpulse")
BODY_getPosition@*(b@*)&=mem:p("flow_ogrenewt_BODY_getPosition")
BODY_calculateGravity@*(b@*)&=mem:p("flow_ogrenewt_BODY_calculateGravity")
BODY_addBuoyancyForce%(fluidDensity#,fluidLinearViscosity#,fluidAngularViscosity#,gravity@*,callback@*,b@*)&=mem:p("flow_ogrenewt_BODY_addBuoyancyForce")
CONTACTCALLBACK_create@*(userBeginMaxFunc@*,userProcessMaxFunc@*)&=mem:p("flow_ogrenewt_CONTACTCALLBACK_create")
CONTACTCALLBACK_delete%(c@*)&=mem:p("flow_ogrenewt_CONTACTCALLBACK_delete")
CONTACTCALLBACK_getBody0@*(c@*)&=mem:p("flow_ogrenewt_CONTACTCALLBACK_getBody0")
CONTACTCALLBACK_getBody1@*(c@*)&=mem:p("flow_ogrenewt_CONTACTCALLBACK_getBody1")
CI_getCurrent@*(c@*)&=mem:p("flow_ogrenewt_CI_getCurrent")
CI_moveNext@(c@*)&=mem:p("flow_ogrenewt_CI_moveNext")
CI_reset%(c@*)&=mem:p("flow_ogrenewt_CI_reset")
CI_hasMoreElements@(c@*)&=mem:p("flow_ogrenewt_CI_hasMoreElements")
CI_getContactCount%(c@*)&=mem:p("flow_ogrenewt_CI_getContactCount")
CONTACT_removeContact%(c@*)&=mem:p("flow_ogrenewt_CONTACT_removeContact")
CONTACT_getContactFaceAttribute%(c@*)&=mem:p("flow_ogrenewt_CONTACT_getContactFaceAttribute")
CONTACT_getBodyCollisionID%(body@*,c@*)&=mem:p("flow_ogrenewt_CONTACT_getBodyCollisionID")
CONTACT_getContactNormalSpeed#(c@*)&=mem:p("flow_ogrenewt_CONTACT_getContactNormalSpeed")
CONTACT_getContactForce@*(c@*)&=mem:p("flow_ogrenewt_CONTACT_getContactForce")
CONTACT_getContactPositionAndNormal%(pos@*,norm@*,c@*)&=mem:p("flow_ogrenewt_CONTACT_getContactPositionAndNormal")
CONTACT_getContactTangentDirections%(dir0@*,dir1@*,c@*)&=mem:p("flow_ogrenewt_CONTACT_getContactTangentDirections")
CONTACT_getContactTangentSpeed#(index%,c@*)&=mem:p("flow_ogrenewt_CONTACT_getContactTangentSpeed")
CONTACT_setContactSoftness%(softness#,c@*)&=mem:p("flow_ogrenewt_CONTACT_setContactSoftness")
CONTACT_setContactElasticity%(elasticity#,c@*)&=mem:p("flow_ogrenewt_CONTACT_setContactElasticity")
CONTACT_setContactFrictionState%(state%,index%,c@*)&=mem:p("flow_ogrenewt_CONTACT_setContactFrictionState")
CONTACT_setContactFrictionCoef%(stat#,kinetic#,index%,c@*)&=mem:p("flow_ogrenewt_CONTACT_setContactFrictionCoef")
CONTACT_setContactTangentAcceleration%(accel#,index%,c@*)&=mem:p("flow_ogrenewt_CONTACT_setContactTangentAcceleration")
CONTACT_rotateTangentDirections%(dir@*,c@*)&=mem:p("flow_ogrenewt_CONTACT_rotateTangentDirections")
CONTACT_setContactNormalDirection%(dir@*,c@*)&=mem:p("flow_ogrenewt_CONTACT_setContactNormalDirection")
CONTACT_setContactNormalAcceleration%(accel#,c@*)&=mem:p("flow_ogrenewt_CONTACT_setContactNormalAcceleration")
OGRENEWTJOINT_create@*()&=mem:p("flow_ogrenewt_OGRENEWTJOINT_create")
OGRENEWTJOINT_delete%(j@*)&=mem:p("flow_ogrenewt_OGRENEWTJOINT_delete")
OGRENEWTJOINT_getCollisionState%(j@*)&=mem:p("flow_ogrenewt_OGRENEWTJOINT_getCollisionState")
OGRENEWTJOINT_setCollisionState%(State%,j@*)&=mem:p("flow_ogrenewt_OGRENEWTJOINT_setCollisionState")
OGRENEWTJOINT_getStiffness#(j@*)&=mem:p("flow_ogrenewt_OGRENEWTJOINT_getStiffness")
OGRENEWTJOINT_setStiffness%(stiffness#,j@*)&=mem:p("flow_ogrenewt_OGRENEWTJOINT_setStiffness")
OGRENEWTJOINT_setUserData%(userObject:Object,j@*)&=mem:p("flow_ogrenewt_OGRENEWTJOINT_setUserData")
OGRENEWTJOINT_getUserData:Object(j@*)&=mem:p("flow_ogrenewt_OGRENEWTJOINT_getUserData")
OGRENEWTJOINT_clearUserData%(j@*)&=mem:p("flow_ogrenewt_OGRENEWTJOINT_clearUserData")
OGRENEWTJOINT_hasUserData@(j@*)&=mem:p("flow_ogrenewt_OGRENEWTJOINT_hasUserData")
OGRENEWTBAS_create@*(world@*,child@*,parent@*,Pos@*)&=mem:p("flow_ogrenewt_OGRENEWTBAS_create")
OGRENEWTBAS_getJointAngle@*(b@*)&=mem:p("flow_ogrenewt_OGRENEWTBAS_getJointAngle")
OGRENEWTBAS_getJointOmega@*(b@*)&=mem:p("flow_ogrenewt_OGRENEWTBAS_getJointOmega")
OGRENEWTBAS_getJointForce@*(b@*)&=mem:p("flow_ogrenewt_OGRENEWTBAS_getJointForce")
OGRENEWTBAS_setLimits%(pin@*,maxCone@*,maxTwist@*,b@*)&=mem:p("flow_ogrenewt_OGRENEWTBAS_setLimits")
OGRENEWTHINGE_create@*(world@*,child@*,parent@*,Pos@*,pin@*)&=mem:p("flow_ogrenewt_OGRENEWTHINGE_create")
OGRENEWTHINGE_getJointAngle@*(h@*)&=mem:p("flow_ogrenewt_OGRENEWTHINGE_getJointAngle")
OGRENEWTHINGE_getJointOmega#(h@*)&=mem:p("flow_ogrenewt_OGRENEWTHINGE_getJointOmega")
OGRENEWTHINGE_getJointForce@*(h@*)&=mem:p("flow_ogrenewt_OGRENEWTHINGE_getJointForce")
OGRENEWTHINGE_setCallback%(HingeCallback@*,h@*)&=mem:p("flow_ogrenewt_OGRENEWTHINGE_setCallback")
OGRENEWTHINGE_setCallbackAccel%(accel#,h@*)&=mem:p("flow_ogrenewt_OGRENEWTHINGE_setCallbackAccel")
OGRENEWTHINGE_setCallbackFrictionMin%(minValue#,h@*)&=mem:p("flow_ogrenewt_OGRENEWTHINGE_setCallbackFrictionMin")
OGRENEWTHINGE_setCallbackFrictionMax%(maxValue#,h@*)&=mem:p("flow_ogrenewt_OGRENEWTHINGE_setCallbackFrictionMax")
OGRENEWTHINGE_getCallbackTimestep#(h@*)&=mem:p("flow_ogrenewt_OGRENEWTHINGE_getCallbackTimestep")
OGRENEWTHINGE_calculateStopAlpha#(angle@*,h@*)&=mem:p("flow_ogrenewt_OGRENEWTHINGE_calculateStopAlpha")
OGRENEWTSLIDER_create@*(world@*,child@*,parent@*,Pos@*,pin@*)&=mem:p("flow_ogrenewt_OGRENEWTSLIDER_create")
OGRENEWTSLIDER_getJointPosit#(h@*)&=mem:p("flow_ogrenewt_OGRENEWTSLIDER_getJointPosit")
OGRENEWTSLIDER_getJointVeloc#(h@*)&=mem:p("flow_ogrenewt_OGRENEWTSLIDER_getJointVeloc")
OGRENEWTSLIDER_getJointForce@*(h@*)&=mem:p("flow_ogrenewt_OGRENEWTSLIDER_getJointForce")
OGRENEWTSLIDER_setCallback%(HingeCallback@*,h@*)&=mem:p("flow_ogrenewt_OGRENEWTSLIDER_setCallback")
OGRENEWTSLIDER_setCallbackAccel%(accel#,h@*)&=mem:p("flow_ogrenewt_OGRENEWTSLIDER_setCallbackAccel")
OGRENEWTSLIDER_setCallbackFrictionMin%(minValue#,h@*)&=mem:p("flow_ogrenewt_OGRENEWTSLIDER_setCallbackFrictionMin")
OGRENEWTSLIDER_setCallbackFrictionMax%(maxValue#,h@*)&=mem:p("flow_ogrenewt_OGRENEWTSLIDER_setCallbackFrictionMax")
OGRENEWTSLIDER_getCallbackTimestep#(h@*)&=mem:p("flow_ogrenewt_OGRENEWTSLIDER_getCallbackTimestep")
OGRENEWTSLIDER_calculateStopAccel#(dist#,h@*)&=mem:p("flow_ogrenewt_OGRENEWTSLIDER_calculateStopAccel")
OGRENEWTUNIVERSAL_create@*(world@*,child@*,parent@*,Pos@*,pin0@*,pin1@*)&=mem:p("flow_ogrenewt_OGRENEWTUNIVERSAL_create")
OGRENEWTUNIVERSAL_getJointAngle0@*(u@*)&=mem:p("flow_ogrenewt_OGRENEWTUNIVERSAL_getJointAngle0")
OGRENEWTUNIVERSAL_getJointAngle1@*(u@*)&=mem:p("flow_ogrenewt_OGRENEWTUNIVERSAL_getJointAngle1")
OGRENEWTUNIVERSAL_getJointOmega0#(u@*)&=mem:p("flow_ogrenewt_OGRENEWTUNIVERSAL_getJointOmega0")
OGRENEWTUNIVERSAL_getJointOmega1#(u@*)&=mem:p("flow_ogrenewt_OGRENEWTUNIVERSAL_getJointOmega1")
OGRENEWTUNIVERSAL_getJointForce@*(u@*)&=mem:p("flow_ogrenewt_OGRENEWTUNIVERSAL_getJointForce")
OGRENEWTUNIVERSAL_setCallback%(me@*,u@*)&=mem:p("flow_ogrenewt_OGRENEWTUNIVERSAL_setCallback")
OGRENEWTUNIVERSAL_setCallbackAccel%(accel#,axis%,u@*)&=mem:p("flow_ogrenewt_OGRENEWTUNIVERSAL_setCallbackAccel")
OGRENEWTUNIVERSAL_setCallbackFrictionMin%(minValue#,axis%,u@*)&=mem:p("flow_ogrenewt_OGRENEWTUNIVERSAL_setCallbackFrictionMin")
OGRENEWTUNIVERSAL_setCallbackFrictionMax%(maxValue#,axis%,u@*)&=mem:p("flow_ogrenewt_OGRENEWTUNIVERSAL_setCallbackFrictionMax")
OGRENEWTUNIVERSAL_getCallbackTimestep#(u@*)&=mem:p("flow_ogrenewt_OGRENEWTUNIVERSAL_getCallbackTimestep")
OGRENEWTUNIVERSAL_calculateStopAlpha0#(angle#,u@*)&=mem:p("flow_ogrenewt_OGRENEWTUNIVERSAL_calculateStopAlpha0")
OGRENEWTUNIVERSAL_calculateStopAlpha1#(angle#,u@*)&=mem:p("flow_ogrenewt_OGRENEWTUNIVERSAL_calculateStopAlpha1")
OGRENEWTUV_create@*(world@*,body@*,pin@*)&=mem:p("flow_ogrenewt_OGRENEWTUV_create")
OGRENEWTUV_setPin%(pin@*,u@*)&=mem:p("flow_ogrenewt_OGRENEWTUV_setPin")
OGRENEWTUV_getPin@*(u@*)&=mem:p("flow_ogrenewt_OGRENEWTUV_getPin")
